[gd_scene load_steps=1 format=2]

[ext_resource id=1 path="../material/FaceSmile.tres" type="SpatialMaterial"]

[sub_resource id=1 type="ConvexPolygonShape"]

resource_name = "Cube"
points = PoolVector3Array(-2.0215, -0.6, -1.58166, -2.0215, -0.6, 1.6536, 2.02299, -0.6, -1.58166, 2.02299, -0.6, 1.6536, -2.28545, -0.678314, -1.7928, -2.28545, -0.678314, 1.86473, 2.28695, -0.678314, -1.7928, 2.28695, -0.678314, 1.86473, -3.50141, -0.426519, -1.31391, -3.50141, -0.426519, 1.38584, 3.5029, -0.426519, -1.31391, 3.5029, -0.426519, 1.38584, -1.87442, -0.47728, -1.46401, -1.87442, -0.47728, 1.53594, 1.87591, -0.47728, 1.53594, 1.87591, -0.47728, -1.46401, -2.71688, -0.459571, -2.14664, 3.10664, -0.334957, -2.23853, -3.35529, -0.210618, -2.04599, 3.35678, -0.210618, -2.04599, -2.0215, 0.6, -1.58166, -2.0215, 0.6, 1.6536, 2.02299, 0.6, -1.58166, 2.02299, 0.6, 1.6536, -2.28545, 0.678314, -1.7928, -2.28545, 0.678314, 1.86473, 2.28695, 0.678314, -1.7928, 2.28695, 0.678314, 1.86473, -3.50141, 0.426519, -1.31391, -3.50141, 0.426519, 1.38584, 3.5029, 0.426519, -1.31391, 3.5029, 0.426519, 1.38584, -1.87442, 0.47728, -1.46401, -1.87442, 0.47728, 1.53594, 1.87591, 0.47728, 1.53594, 1.87591, 0.47728, -1.46401, -2.71688, 0.459571, -2.14664, 3.10664, 0.334957, -2.23853, -3.35529, 0.210618, -2.04599, 3.35678, 0.210618, -2.04599, -2.28545, 0.0, -1.7928, -2.28545, 0.0, 1.86473, 2.28695, 0.0, -1.7928, 2.28695, 0.0, 1.86473, -3.50141, 0.0, -1.31391, -3.50141, 0.0, 1.38584, 3.5029, 0.0, -1.31391, 3.5029, 0.0, 1.38584, -2.71688, 0.0, -2.14664, 3.10664, 0.0, -2.23853, -3.35529, 0.0, -2.04599, 3.35678, 0.0, -2.04599)

[sub_resource id=2 type="Shader"]

resource_name = "Shader Nodetree"
code = "shader_type spatial;
render_mode blend_mix, depth_draw_always, cull_back, diffuse_burley, specular_schlick_ggx;



void node_bsdf_principled(vec4 color, float subsurface, vec4 subsurface_color,
        float metallic, float specular, float roughness, float clearcoat,
        float clearcoat_roughness, float anisotropy, float transmission,
        float IOR, out vec3 albedo, out float sss_strength_out,
        out float metallic_out, out float specular_out,
        out float roughness_out, out float clearcoat_out,
        out float clearcoat_gloss_out, out float anisotropy_out,
        out float transmission_out, out float ior) {
    metallic = clamp(metallic, 0.0, 1.0);
    transmission = clamp(transmission, 0.0, 1.0);

    subsurface = subsurface * (1.0 - metallic);

    albedo = mix(color.rgb, subsurface_color.rgb, subsurface);
    sss_strength_out = subsurface;
    metallic_out = metallic;
    specular_out = pow((IOR - 1.0)/(IOR + 1.0), 2)/0.08;
    roughness_out = roughness;
    clearcoat_out = clearcoat * (1.0 - transmission);
    clearcoat_gloss_out = 1.0 - clearcoat_roughness;
    anisotropy_out = clamp(anisotropy, 0.0, 1.0);
    transmission_out = (1.0 - transmission) * (1.0 - metallic);
    ior = IOR;
}

void vertex () {
}

void fragment () {
	
	// node: 'Principled BSDF'
	// type: 'ShaderNodeBsdfPrincipled'
	// input sockets handling
	vec4 node0_in0_basecolor = vec4(0.1272318810224533, 0.1570185273885727,
		0.17769621312618256, 1.0);
	float node0_in1_subsurface = float(0.0);
	vec3 node0_in2_subsurfaceradius = vec3(1.0, 0.20000000298023224,
		0.10000000149011612);
	vec4 node0_in3_subsurfacecolor = vec4(0.800000011920929, 0.800000011920929,
		0.800000011920929, 1.0);
	float node0_in4_metallic = float(0.8489583134651184);
	float node0_in5_specular = float(0.5);
	float node0_in6_speculartint = float(0.0);
	float node0_in7_roughness = float(0.796875);
	float node0_in8_anisotropic = float(0.0);
	float node0_in9_anisotropicrotation = float(0.0);
	float node0_in10_sheen = float(0.0);
	float node0_in11_sheentint = float(0.5);
	float node0_in12_clearcoat = float(0.0);
	float node0_in13_clearcoatroughness = float(0.029999999329447746);
	float node0_in14_ior = float(1.4500000476837158);
	float node0_in15_transmission = float(0.0);
	float node0_in16_transmissionroughness = float(0.0);
	vec4 node0_in17_emission = vec4(0.0, 0.0, 0.0, 1.0);
	float node0_in18_alpha = float(1.0);
	vec3 node0_in19_normal = NORMAL;
	vec3 node0_in20_clearcoatnormal = vec3(0.0, 0.0, 0.0);
	vec3 node0_in21_tangent = TANGENT;
	// output sockets definitions
	vec3 node0_bsdf_out0_albedo;
	float node0_bsdf_out1_sss_strength;
	float node0_bsdf_out3_specular;
	float node0_bsdf_out2_metallic;
	float node0_bsdf_out4_roughness;
	float node0_bsdf_out5_clearcoat;
	float node0_bsdf_out6_clearcoat_gloss;
	float node0_bsdf_out7_anisotropy;
	float node0_bsdf_out8_transmission;
	float node0_bsdf_out9_ior;
	
	node_bsdf_principled(node0_in0_basecolor, node0_in1_subsurface,
		node0_in3_subsurfacecolor, node0_in4_metallic, node0_in5_specular,
		node0_in7_roughness, node0_in12_clearcoat, node0_in13_clearcoatroughness,
		node0_in8_anisotropic, node0_in15_transmission, node0_in14_ior,
		node0_bsdf_out0_albedo, node0_bsdf_out1_sss_strength, node0_bsdf_out2_metallic,
		node0_bsdf_out3_specular, node0_bsdf_out4_roughness, node0_bsdf_out5_clearcoat,
		node0_bsdf_out6_clearcoat_gloss, node0_bsdf_out7_anisotropy,
		node0_bsdf_out8_transmission, node0_bsdf_out9_ior);
	
	
	ALBEDO = node0_bsdf_out0_albedo;
	SSS_STRENGTH = node0_bsdf_out1_sss_strength;
	SPECULAR = node0_bsdf_out3_specular;
	METALLIC = node0_bsdf_out2_metallic;
	ROUGHNESS = node0_bsdf_out4_roughness;
	CLEARCOAT = node0_bsdf_out5_clearcoat;
	CLEARCOAT_GLOSS = node0_bsdf_out6_clearcoat_gloss;
	NORMAL = node0_in19_normal;
	// uncomment it when you need it
	// TRANSMISSION = vec3(1.0, 1.0, 1.0) * node0_bsdf_out8_transmission;
	// uncomment it when you are modifing TANGENT
	// TANGENT = normalize(cross(cross(node0_in21_tangent, NORMAL), NORMAL));
	// BINORMAL = cross(TANGENT, NORMAL);
	// uncomment it when you have tangent(UV) set
	// ANISOTROPY = node0_bsdf_out7_anisotropy;
}
"

[sub_resource id=3 type="ShaderMaterial"]

shader = SubResource(2)

[sub_resource id=4 type="ArrayMesh"]

resource_name = "Cube"
surfaces/0 = {
	"material":SubResource(3),
	"primitive":4,
	"arrays":[
		Vector3Array(-2.0215, -1.58166, 0.6, 2.28695, -1.7928, 0.678314, 2.02299, -1.58166, 0.6, -2.0215, 1.6536, 0.6, -2.28545, -1.7928, 0.678314, -2.0215, -1.58166, 0.6, -2.28545, 1.86473, 0.678314, -3.50141, -1.31391, 0.426519, -2.28545, -1.7928, 0.678314, 2.28695, -1.7928, 0.0, -2.28545, -1.7928, 0.678314, -2.28545, -1.7928, 0.0, -2.28545, 1.86473, 0.0, 2.28695, 1.86473, 0.678314, 2.28695, 1.86473, 0.0, 2.02299, 1.6536, 0.6, -2.28545, 1.86473, 0.678314, -2.0215, 1.6536, 0.6, 2.02299, -1.58166, 0.6, 2.28695, 1.86473, 0.678314, 2.02299, 1.6536, 0.6, 3.5029, 1.38584, 0.0, 3.5029, -1.31391, 0.426519, 3.5029, -1.31391, 0.0, 2.28695, 1.86473, 0.678314, 3.5029, 1.38584, 0.0, 2.28695, 1.86473, 0.0, 2.28695, -1.7928, 0.678314, 3.5029, 1.38584, 0.426519, 2.28695, 1.86473, 0.678314, 3.5029, -1.31391, 0.426519, 3.35678, -2.04599, 0.0, 3.5029, -1.31391, 0.0, -2.0215, 1.6536, 0.6, 1.87591, 1.53594, 0.47728, 2.02299, 1.6536, 0.6, 2.02299, 1.6536, 0.6, 1.87591, -1.46401, 0.47728, 2.02299, -1.58166, 0.6, -2.0215, -1.58166, 0.6, -1.87442, 1.53594, 0.47728, -2.0215, 1.6536, 0.6, 2.02299, -1.58166, 0.6, -1.87442, -1.46401, 0.47728, -2.0215, -1.58166, 0.6, -2.71688, -2.14664, 0.459571, -3.35529, -2.04599, 0.0, -2.71688, -2.14664, 0.0, -2.28545, -1.7928, 0.678314, -2.71688, -2.14664, 0.0, -2.28545, -1.7928, 0.0, 2.28695, -1.7928, 0.678314, 3.35678, -2.04599, 0.210618, 3.5029, -1.31391, 0.426519, -3.50141, -1.31391, 0.426519, -2.71688, -2.14664, 0.459571, -2.28545, -1.7928, 0.678314, -3.50141, -1.31391, 0.0, -3.35529, -2.04599, 0.210618, -3.50141, -1.31391, 0.426519, 2.28695, -1.7928, 0.0, 3.10664, -2.23853, 0.334957, 2.28695, -1.7928, 0.678314, 3.10664, -2.23853, 0.0, 3.35678, -2.04599, 0.210618, 3.10664, -2.23853, 0.334957, -2.28545, 1.86473, 0.0, -3.50141, 1.38584, 0.426519, -2.28545, 1.86473, 0.678314, -3.50141, 1.38584, 0.426519, -3.50141, -1.31391, 0.0, -3.50141, -1.31391, 0.426519, 2.28695, -1.7928, -0.678314, -2.0215, -1.58166, -0.6, 2.02299, -1.58166, -0.6, -2.28545, -1.7928, -0.678314, -2.0215, 1.6536, -0.6, -2.0215, -1.58166, -0.6, -3.50141, -1.31391, -0.426519, -2.28545, 1.86473, -0.678314, -2.28545, -1.7928, -0.678314, -2.28545, -1.7928, -0.678314, 2.28695, -1.7928, 0.0, -2.28545, -1.7928, 0.0, 2.28695, 1.86473, -0.678314, -2.28545, 1.86473, 0.0, 2.28695, 1.86473, 0.0, -2.28545, 1.86473, -0.678314, 2.02299, 1.6536, -0.6, -2.0215, 1.6536, -0.6, 2.28695, 1.86473, -0.678314, 2.02299, -1.58166, -0.6, 2.02299, 1.6536, -0.6, 3.5029, -1.31391, -0.426519, 3.5029, 1.38584, 0.0, 3.5029, -1.31391, 0.0, 3.5029, 1.38584, 0.0, 2.28695, 1.86473, -0.678314, 2.28695, 1.86473, 0.0, 3.5029, 1.38584, -0.426519, 2.28695, -1.7928, -0.678314, 2.28695, 1.86473, -0.678314, 3.35678, -2.04599, 0.0, 3.5029, -1.31391, -0.426519, 3.5029, -1.31391, 0.0, 1.87591, 1.53594, -0.47728, -2.0215, 1.6536, -0.6, 2.02299, 1.6536, -0.6, 1.87591, -1.46401, -0.47728, 2.02299, 1.6536, -0.6, 2.02299, -1.58166, -0.6, -1.87442, 1.53594, -0.47728, -2.0215, -1.58166, -0.6, -2.0215, 1.6536, -0.6, -1.87442, -1.46401, -0.47728, 2.02299, -1.58166, -0.6, -2.0215, -1.58166, -0.6, -3.35529, -2.04599, 0.0, -2.71688, -2.14664, -0.459571, -2.71688, -2.14664, 0.0, -2.71688, -2.14664, 0.0, -2.28545, -1.7928, -0.678314, -2.28545, -1.7928, 0.0, 3.35678, -2.04599, -0.210618, 2.28695, -1.7928, -0.678314, 3.5029, -1.31391, -0.426519, -2.71688, -2.14664, -0.459571, -3.50141, -1.31391, -0.426519, -2.28545, -1.7928, -0.678314, -3.35529, -2.04599, -0.210618, -3.50141, -1.31391, 0.0, -3.50141, -1.31391, -0.426519, 3.10664, -2.23853, -0.334957, 2.28695, -1.7928, 0.0, 2.28695, -1.7928, -0.678314, 3.35678, -2.04599, -0.210618, 3.10664, -2.23853, 0.0, 3.10664, -2.23853, -0.334957, -3.50141, 1.38584, -0.426519, -2.28545, 1.86473, 0.0, -2.28545, 1.86473, -0.678314, -3.50141, -1.31391, 0.0, -3.50141, 1.38584, -0.426519, -3.50141, -1.31391, -0.426519, -2.0215, -1.58166, 0.6, -2.28545, -1.7928, 0.678314, 2.28695, -1.7928, 0.678314, -2.0215, 1.6536, 0.6, -2.28545, 1.86473, 0.678314, -2.28545, -1.7928, 0.678314, -2.28545, 1.86473, 0.678314, -3.50141, 1.38584, 0.426519, -3.50141, -1.31391, 0.426519, 2.28695, -1.7928, 0.678314, -2.28545, 1.86473, 0.678314, 2.02299, 1.6536, 0.6, 2.28695, 1.86473, 0.678314, -2.28545, 1.86473, 0.678314, 2.02299, -1.58166, 0.6, 2.28695, -1.7928, 0.678314, 2.28695, 1.86473, 0.678314, 3.5029, 1.38584, 0.426519, 2.28695, 1.86473, 0.678314, 3.5029, 1.38584, 0.426519, 3.5029, 1.38584, 0.0, 2.28695, -1.7928, 0.678314, 3.5029, -1.31391, 0.426519, 3.5029, 1.38584, 0.426519, 3.5029, -1.31391, 0.426519, 3.35678, -2.04599, 0.210618, 3.35678, -2.04599, 0.0, -2.0215, 1.6536, 0.6, -1.87442, 1.53594, 0.47728, 1.87591, 1.53594, 0.47728, 2.02299, 1.6536, 0.6, 1.87591, 1.53594, 0.47728, 1.87591, -1.46401, 0.47728, -2.0215, -1.58166, 0.6, -1.87442, -1.46401, 0.47728, -1.87442, 1.53594, 0.47728, 2.02299, -1.58166, 0.6, 1.87591, -1.46401, 0.47728, -1.87442, -1.46401, 0.47728, -2.71688, -2.14664, 0.459571, -3.35529, -2.04599, 0.210618, -3.35529, -2.04599, 0.0, -2.71688, -2.14664, 0.459571, 2.28695, -1.7928, 0.678314, 3.10664, -2.23853, 0.334957, 3.35678, -2.04599, 0.210618, -3.50141, -1.31391, 0.426519, -3.35529, -2.04599, 0.210618, -2.71688, -2.14664, 0.459571, -3.50141, -1.31391, 0.0, -3.35529, -2.04599, 0.0, -3.35529, -2.04599, 0.210618, 2.28695, -1.7928, 0.0, 3.10664, -2.23853, 0.0, 3.10664, -2.23853, 0.334957, 3.10664, -2.23853, 0.0, 3.35678, -2.04599, 0.0, 3.35678, -2.04599, 0.210618, -2.28545, 1.86473, 0.0, -3.50141, 1.38584, 0.0, -3.50141, 1.38584, 0.426519, -3.50141, 1.38584, 0.0, 2.28695, -1.7928, -0.678314, -2.28545, -1.7928, -0.678314, -2.0215, -1.58166, -0.6, -2.28545, -1.7928, -0.678314, -2.28545, 1.86473, -0.678314, -2.0215, 1.6536, -0.6, -3.50141, -1.31391, -0.426519, -3.50141, 1.38584, -0.426519, -2.28545, 1.86473, -0.678314, 2.28695, -1.7928, -0.678314, -2.28545, 1.86473, -0.678314, -2.28545, 1.86473, -0.678314, 2.28695, 1.86473, -0.678314, 2.02299, 1.6536, -0.6, 2.28695, 1.86473, -0.678314, 2.28695, -1.7928, -0.678314, 2.02299, -1.58166, -0.6, 3.5029, 1.38584, -0.426519, 3.5029, 1.38584, 0.0, 3.5029, 1.38584, -0.426519, 2.28695, 1.86473, -0.678314, 3.5029, 1.38584, -0.426519, 3.5029, -1.31391, -0.426519, 2.28695, -1.7928, -0.678314, 3.35678, -2.04599, 0.0, 3.35678, -2.04599, -0.210618, 3.5029, -1.31391, -0.426519, 1.87591, 1.53594, -0.47728, -1.87442, 1.53594, -0.47728, -2.0215, 1.6536, -0.6, 1.87591, -1.46401, -0.47728, 1.87591, 1.53594, -0.47728, 2.02299, 1.6536, -0.6, -1.87442, 1.53594, -0.47728, -1.87442, -1.46401, -0.47728, -2.0215, -1.58166, -0.6, -1.87442, -1.46401, -0.47728, 1.87591, -1.46401, -0.47728, 2.02299, -1.58166, -0.6, -3.35529, -2.04599, 0.0, -3.35529, -2.04599, -0.210618, -2.71688, -2.14664, -0.459571, -2.71688, -2.14664, -0.459571, 3.35678, -2.04599, -0.210618, 3.10664, -2.23853, -0.334957, 2.28695, -1.7928, -0.678314, -2.71688, -2.14664, -0.459571, -3.35529, -2.04599, -0.210618, -3.50141, -1.31391, -0.426519, -3.35529, -2.04599, -0.210618, -3.35529, -2.04599, 0.0, -3.50141, -1.31391, 0.0, 3.10664, -2.23853, -0.334957, 3.10664, -2.23853, 0.0, 2.28695, -1.7928, 0.0, 3.35678, -2.04599, -0.210618, 3.35678, -2.04599, 0.0, 3.10664, -2.23853, 0.0, -3.50141, 1.38584, -0.426519, -3.50141, 1.38584, 0.0, -2.28545, 1.86473, 0.0, -3.50141, 1.38584, 0.0),
		Vector3Array(0.0, 0.347763, 0.937583, 0.0, 0.347763, 0.937583, 0.0, 0.347763, 0.937583, 0.284443, 0.0, 0.958693, 0.284443, 0.0, 0.958693, 0.284443, 0.0, 0.958693, -0.202774, 0.0, 0.979226, -0.202774, 0.0, 0.979226, -0.202774, 0.0, 0.979226, 0.0, -1.0, 0.0, 0.0, -1.0, 0.0, 0.0, -1.0, 0.0, 0.0, 1.0, 0.0, 0.0, 1.0, 0.0, 0.0, 1.0, 0.0, 0.0, -0.347763, 0.937583, 0.0, -0.347763, 0.937583, 0.0, -0.347763, 0.937583, -0.284444, 0.0, 0.958693, -0.284444, 0.0, 0.958693, -0.284444, 0.0, 0.958693, 1.0, 0.0, 0.0, 1.0, 0.0, 0.0, 1.0, 0.0, 0.0, 0.366443, 0.93044, 0.0, 0.366443, 0.93044, 0.0, 0.366443, 0.93044, 0.0, 0.202774, 0.0, 0.979226, 0.202774, 0.0, 0.979226, 0.202774, 0.0, 0.979226, 0.980656, -0.195738, 0.0, 0.980656, -0.195738, 0.0, 0.980656, -0.195738, 0.0, 0.0, -0.721845, 0.692055, 0.0, -0.721845, 0.692055, 0.0, -0.721845, 0.692055, -0.640646, 0.0, 0.767837, -0.640646, 0.0, 0.767837, -0.640646, 0.0, 0.767837, 0.640646, 0.0, 0.767836, 0.640646, 0.0, 0.767836, 0.640646, 0.0, 0.767836, 0.0, 0.721846, 0.692054, 0.0, 0.721846, 0.692054, 0.0, 0.721846, 0.692054, -0.155736, -0.987799, 0.0, -0.155736, -0.987799, 0.0, -0.155736, -0.987799, 0.0, 0.634162, -0.7732, 0.0, 0.634162, -0.7732, 0.0, 0.634162, -0.7732, 0.0, 0.312986, -0.325594, 0.892204, 0.312986, -0.325594, 0.892204, 0.312986, -0.325594, 0.892204, -0.283384, -0.230028, 0.93101, -0.283384, -0.230028, 0.93101, -0.283384, -0.230028, 0.93101, -0.980656, -0.195738, 0.0, -0.980656, -0.195738, 0.0, -0.980656, -0.195738, 0.0, -0.477718, -0.878513, 0.0, -0.477718, -0.878513, 0.0, -0.477718, -0.878513, 0.0, 0.609964, -0.792429, 0.0, 0.609964, -0.792429, 0.0, 0.609964, -0.792429, 0.0, -0.366443, 0.93044, 0.0, -0.366443, 0.93044, 0.0, -0.366443, 0.93044, 0.0, -1.0, 0.0, 0.0, -1.0, 0.0, 0.0, -1.0, 0.0, 0.0, 0.0, 0.347762, -0.937583, 0.0, 0.347762, -0.937583, 0.0, 0.347762, -0.937583, 0.284443, 0.0, -0.958693, 0.284443, 0.0, -0.958693, 0.284443, 0.0, -0.958693, -0.202774, 0.0, -0.979225, -0.202774, 0.0, -0.979225, -0.202774, 0.0, -0.979225, 0.0, -1.0, 0.0, 0.0, -1.0, 0.0, 0.0, -1.0, 0.0, 0.0, 1.0, 0.0, 0.0, 1.0, 0.0, 0.0, 1.0, 0.0, 0.0, -0.347762, -0.937583, 0.0, -0.347762, -0.937583, 0.0, -0.347762, -0.937583, -0.284443, 0.0, -0.958693, -0.284443, 0.0, -0.958693, -0.284443, 0.0, -0.958693, 1.0, 0.0, 0.0, 1.0, 0.0, 0.0, 1.0, 0.0, 0.0, 0.366443, 0.93044, 0.0, 0.366443, 0.93044, 0.0, 0.366443, 0.93044, 0.0, 0.202774, 0.0, -0.979226, 0.202774, 0.0, -0.979226, 0.202774, 0.0, -0.979226, 0.980656, -0.195738, 0.0, 0.980656, -0.195738, 0.0, 0.980656, -0.195738, 0.0, 0.0, -0.721845, -0.692055, 0.0, -0.721845, -0.692055, 0.0, -0.721845, -0.692055, -0.640646, 0.0, -0.767836, -0.640646, 0.0, -0.767836, -0.640646, 0.0, -0.767836, 0.640646, 0.0, -0.767836, 0.640646, 0.0, -0.767836, 0.640646, 0.0, -0.767836, 0.0, 0.721846, -0.692054, 0.0, 0.721846, -0.692054, 0.0, 0.721846, -0.692054, -0.155736, -0.987799, 0.0, -0.155736, -0.987799, 0.0, -0.155736, -0.987799, 0.0, 0.634162, -0.7732, 0.0, 0.634162, -0.7732, 0.0, 0.634162, -0.7732, 0.0, 0.312986, -0.325594, -0.892204, 0.312986, -0.325594, -0.892204, 0.312986, -0.325594, -0.892204, -0.283384, -0.230028, -0.93101, -0.283384, -0.230028, -0.93101, -0.283384, -0.230028, -0.93101, -0.980656, -0.195738, 0.0, -0.980656, -0.195738, 0.0, -0.980656, -0.195738, 0.0, -0.477718, -0.878513, 0.0, -0.477718, -0.878513, 0.0, -0.477718, -0.878513, 0.0, 0.609964, -0.792429, 0.0, 0.609964, -0.792429, 0.0, 0.609964, -0.792429, 0.0, -0.366444, 0.93044, 0.0, -0.366444, 0.93044, 0.0, -0.366444, 0.93044, 0.0, -1.0, 0.0, 0.0, -1.0, 0.0, 0.0, -1.0, 0.0, 0.0, 0.0, 0.347762, 0.937583, 0.0, 0.347762, 0.937583, 0.0, 0.347762, 0.937583, 0.284443, 0.0, 0.958693, 0.284443, 0.0, 0.958693, 0.284443, 0.0, 0.958693, -0.202774, 0.0, 0.979226, -0.202774, 0.0, 0.979226, -0.202774, 0.0, 0.979226, 0.0, -1.0, 0.0, 0.0, 1.0, 0.0, 0.0, -0.347762, 0.937583, 0.0, -0.347762, 0.937583, 0.0, -0.347762, 0.937583, -0.284443, 0.0, 0.958693, -0.284443, 0.0, 0.958693, -0.284443, 0.0, 0.958693, 1.0, 0.0, 0.0, 0.366443, 0.93044, 0.0, 0.366443, 0.93044, 0.0, 0.366443, 0.93044, 0.0, 0.202774, 0.0, 0.979226, 0.202774, 0.0, 0.979226, 0.202774, 0.0, 0.979226, 0.980656, -0.195738, 0.0, 0.980656, -0.195738, 0.0, 0.980656, -0.195738, 0.0, 0.0, -0.721845, 0.692054, 0.0, -0.721845, 0.692054, 0.0, -0.721845, 0.692054, -0.640646, 0.0, 0.767836, -0.640646, 0.0, 0.767836, -0.640646, 0.0, 0.767836, 0.640646, 0.0, 0.767836, 0.640646, 0.0, 0.767836, 0.640646, 0.0, 0.767836, 0.0, 0.721846, 0.692054, 0.0, 0.721846, 0.692054, 0.0, 0.721846, 0.692054, -0.155737, -0.987799, 0.0, -0.155737, -0.987799, 0.0, -0.155737, -0.987799, 0.0, 0.634162, -0.7732, 0.0, 0.410712, 0.0541821, 0.910154, 0.410712, 0.0541821, 0.910154, 0.410712, 0.0541821, 0.910154, -0.387673, -0.331088, 0.860285, -0.387673, -0.331088, 0.860285, -0.387673, -0.331088, 0.860285, -0.980656, -0.195738, 0.0, -0.980656, -0.195738, 0.0, -0.980656, -0.195738, 0.0, -0.477718, -0.878513, 0.0, -0.477718, -0.878513, 0.0, -0.477718, -0.878513, 0.0, 0.609964, -0.792429, 0.0, 0.609964, -0.792429, 0.0, 0.609964, -0.792429, 0.0, -0.366443, 0.93044, 0.0, -0.366443, 0.93044, 0.0, -0.366443, 0.93044, 0.0, -1.0, 0.0, 0.0, 0.0, 0.347763, -0.937583, 0.0, 0.347763, -0.937583, 0.0, 0.347763, -0.937583, 0.284443, 0.0, -0.958693, 0.284443, 0.0, -0.958693, 0.284443, 0.0, -0.958693, -0.202774, 0.0, -0.979226, -0.202774, 0.0, -0.979226, -0.202774, 0.0, -0.979226, 0.0, -1.0, 0.0, 0.0, 1.0, 0.0, 0.0, -0.347763, -0.937583, 0.0, -0.347763, -0.937583, 0.0, -0.347763, -0.937583, -0.284443, 0.0, -0.958693, -0.284443, 0.0, -0.958693, -0.284443, 0.0, -0.958693, 1.0, 0.0, 0.0, 0.366443, 0.93044, 0.0, 0.366443, 0.93044, 0.0, 0.366443, 0.93044, 0.0, 0.202774, 0.0, -0.979226, 0.202774, 0.0, -0.979226, 0.202774, 0.0, -0.979226, 0.980656, -0.195738, 0.0, 0.980656, -0.195738, 0.0, 0.980656, -0.195738, 0.0, 0.0, -0.721845, -0.692055, 0.0, -0.721845, -0.692055, 0.0, -0.721845, -0.692055, -0.640646, 0.0, -0.767836, -0.640646, 0.0, -0.767836, -0.640646, 0.0, -0.767836, 0.640646, 0.0, -0.767836, 0.640646, 0.0, -0.767836, 0.640646, 0.0, -0.767836, 0.0, 0.721846, -0.692054, 0.0, 0.721846, -0.692054, 0.0, 0.721846, -0.692054, -0.155737, -0.987799, 0.0, -0.155737, -0.987799, 0.0, -0.155737, -0.987799, 0.0, 0.634162, -0.7732, 0.0, 0.410712, 0.054182, -0.910154, 0.410712, 0.054182, -0.910154, 0.410712, 0.054182, -0.910154, -0.387673, -0.331088, -0.860285, -0.387673, -0.331088, -0.860285, -0.387673, -0.331088, -0.860285, -0.980656, -0.195738, 0.0, -0.980656, -0.195738, 0.0, -0.980656, -0.195738, 0.0, -0.477718, -0.878513, 0.0, -0.477718, -0.878513, 0.0, -0.477718, -0.878513, 0.0, 0.609964, -0.792429, 0.0, 0.609964, -0.792429, 0.0, 0.609964, -0.792429, 0.0, -0.366443, 0.93044, 0.0, -0.366443, 0.93044, 0.0, -0.366443, 0.93044, 0.0, -1.0, 0.0, 0.0),
		FloatArray(1.0, -0.000104101, 3.86124e-05, 1.0, 1.0, -0.000104101, 3.86124e-05, 1.0, 1.0, -0.000104101, 3.86124e-05, 1.0, 0.958508, 0.019654, -0.284389, 1.0, 0.958508, 0.019654, -0.284389, 1.0, 0.958508, 0.019654, -0.284389, 1.0, 0.979127, -0.0141796, 0.202754, 1.0, 0.979127, -0.0141796, 0.202754, 1.0, 0.979127, -0.0141796, 0.202754, 1.0, 1.0, 0.0, 1.20773e-07, 1.0, 1.0, 0.0, 1.22484e-07, 1.0, 1.0, 0.0, 1.22682e-07, 1.0, -1.0, 0.0, 2.41546e-07, 1.0, -1.0, 0.0, 2.44969e-07, 1.0, -1.0, 0.0, 2.45364e-07, 1.0, 1.0, -9.88724e-05, -3.66732e-05, 1.0, 1.0, -9.88724e-05, -3.66732e-05, 1.0, 1.0, -9.88724e-05, -3.66732e-05, 1.0, 0.958504, -0.0198481, 0.284388, 1.0, 0.958504, -0.0198481, 0.284388, 1.0, 0.958504, -0.0198481, 0.284388, 1.0, 0.0, 1.0, 7.08648e-08, 1.0, 0.0, 1.0, 6.94374e-08, 1.0, 0.0, 1.0, 6.92595e-08, 1.0, -0.93044, 0.366444, 0.0, 1.0, -0.93044, 0.366443, 0.0, 1.0, -0.93044, 0.366444, 0.0, 1.0, 0.97913, 0.0139816, -0.202754, 1.0, 0.97913, 0.0139816, -0.202754, 1.0, 0.97913, 0.0139816, -0.202754, 1.0, 0.195738, 0.980656, 0.0, 1.0, 0.195738, 0.980656, 0.0, 1.0, 0.195738, 0.980656, 0.0, 1.0, -1.0, 0.0, 0.0, 1.0, -1.0, 0.0, 0.0, 1.0, -1.0, 0.0, 0.0, 1.0, 0.767075, -0.044524, 0.64001, 1.0, 0.767075, -0.044524, 0.64001, 1.0, 0.767075, -0.044524, 0.64001, 1.0, 0.76708, 0.0443654, -0.640015, 1.0, 0.76708, 0.0443654, -0.640015, 1.0, 0.76708, 0.0443654, -0.640015, 1.0, -1.0, -1.77294e-07, 1.84926e-07, 1.0, -1.0, -1.77294e-07, 1.84926e-07, 1.0, -1.0, -1.77294e-07, 1.84926e-07, 1.0, 0.987799, -0.155736, 0.0, 1.0, 0.987799, -0.155736, 0.0, 1.0, 0.987799, -0.155736, 0.0, 1.0, -1.73902e-07, -1.42631e-07, -1.0, 1.0, -1.79308e-07, -1.47064e-07, -1.0, 1.0, 0.0, 0.0, -1.0, 1.0, 0.945909, 0.0223804, -0.323658, 1.0, 0.945909, 0.0223804, -0.323658, 1.0, 0.945909, 0.0223804, -0.323658, 1.0, 0.957839, -0.0200012, 0.286608, 1.0, 0.957839, -0.0200012, 0.286608, 1.0, 0.957839, -0.0200012, 0.286608, 1.0, -0.195738, 0.980656, 1.46812e-07, 1.0, -0.195738, 0.980656, 1.46812e-07, 1.0, -0.195738, 0.980656, 1.46812e-07, 1.0, 0.878513, -0.477718, -3.693e-08, 1.0, 0.878513, -0.477718, -3.693e-08, 1.0, 0.878513, -0.477718, -3.693e-08, 1.0, 0.792429, 0.609964, -1.10528e-06, 1.0, 0.792429, 0.609964, -1.10528e-06, 1.0, 0.792429, 0.609964, -1.10528e-06, 1.0, -0.93044, -0.366443, 2.63665e-07, 1.0, -0.93044, -0.366443, 2.63665e-07, 1.0, -0.93044, -0.366443, 2.63665e-07, 1.0, 0.0, 1.0, -2.12594e-07, 1.0, 0.0, 1.0, -2.08312e-07, 1.0, 0.0, 1.0, -2.07779e-07, 1.0, 1.0, -0.0001041, -3.86122e-05, -1.0, 1.0, -0.0001041, -3.86122e-05, -1.0, 1.0, -0.0001041, -3.86122e-05, -1.0, 0.958508, 0.019654, 0.284388, -1.0, 0.958508, 0.019654, 0.284388, -1.0, 0.958508, 0.019654, 0.284388, -1.0, 0.979127, -0.0141797, -0.202754, -1.0, 0.979127, -0.0141797, -0.202754, -1.0, 0.979127, -0.0141797, -0.202754, -1.0, 1.0, 0.0, -1.20773e-07, -1.0, 1.0, 0.0, -1.22484e-07, -1.0, 1.0, 0.0, -1.20575e-07, -1.0, -1.0, 0.0, -2.41546e-07, -1.0, -1.0, 0.0, -2.44969e-07, -1.0, -1.0, 0.0, -2.41151e-07, -1.0, 1.0, -9.8872e-05, 3.6673e-05, -1.0, 1.0, -9.8872e-05, 3.6673e-05, -1.0, 1.0, -9.8872e-05, 3.6673e-05, -1.0, 0.958504, -0.0198485, -0.284387, -1.0, 0.958504, -0.0198485, -0.284387, -1.0, 0.958504, -0.0198485, -0.284387, -1.0, 0.0, 1.0, -7.08648e-08, -1.0, 0.0, 1.0, -6.94374e-08, -1.0, 0.0, 1.0, -7.10427e-08, -1.0, -0.93044, 0.366443, 0.0, -1.0, -0.93044, 0.366444, 0.0, -1.0, -0.93044, 0.366444, 0.0, -1.0, 0.97913, 0.0139817, 0.202754, -1.0, 0.97913, 0.0139817, 0.202754, -1.0, 0.97913, 0.0139817, 0.202754, -1.0, 0.195738, 0.980656, 0.0, -1.0, 0.195738, 0.980656, 0.0, -1.0, 0.195738, 0.980656, 0.0, -1.0, -1.0, 0.0, 0.0, -1.0, -1.0, 0.0, 0.0, -1.0, -1.0, 0.0, 0.0, -1.0, 0.767075, -0.0445242, -0.640011, -1.0, 0.767075, -0.0445242, -0.640011, -1.0, 0.767075, -0.0445242, -0.640011, -1.0, 0.76708, 0.0443663, 0.640015, -1.0, 0.76708, 0.0443663, 0.640015, -1.0, 0.76708, 0.0443663, 0.640015, -1.0, -1.0, -1.78611e-07, -1.863e-07, -1.0, -1.0, -1.78611e-07, -1.863e-07, -1.0, -1.0, -1.78611e-07, -1.863e-07, -1.0, 0.987799, -0.155736, 0.0, -1.0, 0.987799, -0.155736, 0.0, -1.0, 0.987799, -0.155736, 0.0, -1.0, -2.04964e-07, -1.68107e-07, 1.0, -1.0, -1.98785e-07, -1.63039e-07, 1.0, -1.0, 0.0, 0.0, 1.0, -1.0, 0.945909, 0.0223804, 0.323658, -1.0, 0.945909, 0.0223804, 0.323658, -1.0, 0.945909, 0.0223804, 0.323658, -1.0, 0.957839, -0.0200012, -0.286608, -1.0, 0.957839, -0.0200012, -0.286608, -1.0, 0.957839, -0.0200012, -0.286608, -1.0, -0.195738, 0.980656, -1.46812e-07, -1.0, -0.195738, 0.980656, -1.46812e-07, -1.0, -0.195738, 0.980656, -1.46812e-07, -1.0, 0.878513, -0.477718, 5.53949e-08, -1.0, 0.878513, -0.477718, 5.53949e-08, -1.0, 0.878513, -0.477718, 5.53949e-08, -1.0, 0.792429, 0.609964, 1.07765e-06, -1.0, 0.792429, 0.609964, 1.07765e-06, -1.0, 0.792429, 0.609964, 1.07765e-06, -1.0, -0.93044, -0.366444, -2.63665e-07, -1.0, -0.93044, -0.366444, -2.63665e-07, -1.0, -0.93044, -0.366444, -2.63665e-07, -1.0, 0.0, 1.0, 2.12594e-07, -1.0, 0.0, 1.0, 2.08312e-07, -1.0, 0.0, 1.0, 2.13128e-07, -1.0, 1.0, -0.000103878, 3.85297e-05, 1.0, 1.0, -0.000103878, 3.85297e-05, 1.0, 1.0, -0.000103878, 3.85297e-05, 1.0, 0.958508, 0.0196534, -0.284388, 1.0, 0.958508, 0.0196534, -0.284388, 1.0, 0.958508, 0.0196534, -0.284388, 1.0, 0.979127, -0.0141796, 0.202754, 1.0, 0.979127, -0.0141796, 0.202754, 1.0, 0.979127, -0.0141796, 0.202754, 1.0, 1.0, 0.0, 1.20575e-07, 1.0, -1.0, 0.0, 2.41151e-07, 1.0, 1.0, -9.8918e-05, -3.66901e-05, 1.0, 1.0, -9.8918e-05, -3.66901e-05, 1.0, 1.0, -9.8918e-05, -3.66901e-05, 1.0, 0.958504, -0.0198449, 0.284387, 1.0, 0.958504, -0.0198449, 0.284387, 1.0, 0.958504, -0.0198449, 0.284387, 1.0, 0.0, 1.0, 7.10427e-08, 1.0, -0.93044, 0.366443, 2.0966e-08, 1.0, -0.93044, 0.366443, 2.0966e-08, 1.0, -0.93044, 0.366443, 2.0966e-08, 1.0, 0.97913, 0.0139806, -0.202754, 1.0, 0.97913, 0.0139806, -0.202754, 1.0, 0.97913, 0.0139806, -0.202754, 1.0, 0.195738, 0.980656, 2.97306e-07, 1.0, 0.195738, 0.980656, 2.97306e-07, 1.0, 0.195738, 0.980656, 2.97306e-07, 1.0, -1.0, -9.6344e-08, -1.00491e-07, 1.0, -1.0, -9.6344e-08, -1.00491e-07, 1.0, -1.0, -9.6344e-08, -1.00491e-07, 1.0, 0.767075, -0.0445218, 0.640011, 1.0, 0.767075, -0.0445218, 0.640011, 1.0, 0.767075, -0.0445218, 0.640011, 1.0, 0.76708, 0.0443687, -0.640015, 1.0, 0.76708, 0.0443687, -0.640015, 1.0, 0.76708, 0.0443687, -0.640015, 1.0, -1.0, -2.8738e-07, 2.99751e-07, 1.0, -1.0, -2.8738e-07, 2.99751e-07, 1.0, -1.0, -2.8738e-07, 2.99751e-07, 1.0, 0.987799, -0.155737, 1.71706e-07, 1.0, 0.987799, -0.155737, 1.71706e-07, 1.0, 0.987799, -0.155737, 1.71706e-07, 1.0, -4.09169e-07, -3.35592e-07, -1.0, 1.0, 0.910482, 0.028558, -0.412561, 1.0, 0.910482, 0.028558, -0.412561, 1.0, 0.910482, 0.028558, -0.412561, 1.0, 0.915339, -0.0279902, 0.40171, 1.0, 0.915339, -0.0279902, 0.40171, 1.0, 0.915339, -0.0279902, 0.40171, 1.0, -0.195738, 0.980656, 0.0, 1.0, -0.195738, 0.980656, 0.0, 1.0, -0.195738, 0.980656, 0.0, 1.0, 0.878513, -0.477718, 2.00401e-07, 1.0, 0.878513, -0.477718, 2.00401e-07, 1.0, 0.878513, -0.477718, 2.00401e-07, 1.0, 0.792429, 0.609964, 1.18471e-06, 1.0, 0.792429, 0.609964, 1.18471e-06, 1.0, 0.792429, 0.609964, 1.18471e-06, 1.0, -0.93044, -0.366443, 2.86157e-07, 1.0, -0.93044, -0.366443, 2.86157e-07, 1.0, -0.93044, -0.366443, 2.86157e-07, 1.0, 0.0, 1.0, -2.13128e-07, 1.0, 1.0, -0.000103876, -3.8529e-05, -1.0, 1.0, -0.000103876, -3.8529e-05, -1.0, 1.0, -0.000103876, -3.8529e-05, -1.0, 0.958508, 0.0196535, 0.284389, -1.0, 0.958508, 0.0196535, 0.284389, -1.0, 0.958508, 0.0196535, 0.284389, -1.0, 0.979127, -0.0141794, -0.202754, -1.0, 0.979127, -0.0141794, -0.202754, -1.0, 0.979127, -0.0141794, -0.202754, -1.0, 1.0, 0.0, -1.22682e-07, -1.0, -1.0, 0.0, -2.45364e-07, -1.0, 1.0, -9.8917e-05, 3.66897e-05, -1.0, 1.0, -9.8917e-05, 3.66897e-05, -1.0, 1.0, -9.8917e-05, 3.66897e-05, -1.0, 0.958504, -0.0198444, -0.284387, -1.0, 0.958504, -0.0198444, -0.284387, -1.0, 0.958504, -0.0198444, -0.284387, -1.0, 0.0, 1.0, -6.92595e-08, -1.0, -0.93044, 0.366443, -4.1932e-08, -1.0, -0.93044, 0.366443, -4.1932e-08, -1.0, -0.93044, 0.366443, -4.1932e-08, -1.0, 0.97913, 0.0139805, 0.202754, -1.0, 0.97913, 0.0139805, 0.202754, -1.0, 0.97913, 0.0139805, 0.202754, -1.0, 0.195738, 0.980656, -2.97306e-07, -1.0, 0.195738, 0.980656, -2.97306e-07, -1.0, 0.195738, 0.980656, -2.97306e-07, -1.0, -1.0, -9.5601e-08, 9.97163e-08, -1.0, -1.0, -9.5601e-08, 9.97163e-08, -1.0, -1.0, -9.5601e-08, 9.97163e-08, -1.0, 0.767075, -0.0445205, -0.640011, -1.0, 0.767075, -0.0445205, -0.640011, -1.0, 0.767075, -0.0445205, -0.640011, -1.0, 0.76708, 0.0443691, 0.640015, -1.0, 0.76708, 0.0443691, 0.640015, -1.0, 0.76708, 0.0443691, 0.640015, -1.0, -1.0, -2.86802e-07, -2.99148e-07, -1.0, -1.0, -2.86802e-07, -2.99148e-07, -1.0, -1.0, -2.86802e-07, -2.99148e-07, -1.0, 0.987799, -0.155737, -1.71706e-07, -1.0, 0.987799, -0.155737, -1.71706e-07, -1.0, 0.987799, -0.155737, -1.71706e-07, -1.0, -4.67715e-07, -3.8361e-07, 1.0, -1.0, 0.910482, 0.028558, 0.412561, -1.0, 0.910482, 0.028558, 0.412561, -1.0, 0.910483, 0.028558, 0.412561, -1.0, 0.915339, -0.0279902, -0.40171, -1.0, 0.915339, -0.0279902, -0.40171, -1.0, 0.915339, -0.0279902, -0.40171, -1.0, -0.195738, 0.980656, 0.0, -1.0, -0.195738, 0.980656, 0.0, -1.0, -0.195738, 0.980656, 0.0, -1.0, 0.878513, -0.477718, -1.86965e-07, -1.0, 0.878513, -0.477718, -1.86965e-07, -1.0, 0.878513, -0.477718, -1.86965e-07, -1.0, 0.792429, 0.609964, -1.1865e-06, -1.0, 0.792429, 0.609964, -1.1865e-06, -1.0, 0.792429, 0.609964, -1.1865e-06, -1.0, -0.93044, -0.366443, -2.93524e-07, -1.0, -0.93044, -0.366443, -2.93524e-07, -1.0, -0.93044, -0.366443, -2.93524e-07, -1.0, 0.0, 1.0, 2.07779e-07, -1.0),
		null, ; no Vertex Colors,
		Vector2Array(0.211251, 0.509173, 0.826349, 0.539447, 0.788681, 0.509113, 0.211251, 0.0320073, 0.173552, 0.539516, 0.211251, 0.509173, 0.173552, 6.84261e-05, -2.98023e-08, 0.471482, 0.173552, 0.539516, 0.640196, 0.824919, 0.0, 0.716806, 0.0, 0.824919, 0.826399, 0.716806, 0.173601, 0.608693, 0.173601, 0.716806, 0.788681, 0.0319468, 0.173552, 6.84261e-05, 0.211251, 0.0320073, 0.788681, 0.509113, 0.826349, 0.0, 0.788681, 0.0319468, 0.437158, 0.96088, 0.0950558, 0.8929, 0.0950558, 0.96088, 0.173601, 0.608693, -5.96046e-08, 0.716806, 0.173601, 0.716806, 0.826349, 0.539447, 0.999999, 0.0731922, 0.826349, 0.0, 0.0950558, 0.8929, -5.96046e-08, 0.96088, 0.0950558, 0.96088, 0.566282, 1.0, 0.0176607, 0.98044, -5.96046e-08, 1.0, 0.788681, 0.0319468, 0.767705, 0.493019, 0.788681, 0.509113, 0.211251, 0.509173, 0.232274, 0.050615, 0.211251, 0.0320073, 0.0, 0.96088, 0.55643, 0.98044, 0.577429, 0.96088, 0.529053, 0.824919, 0.437158, 0.898168, 0.529053, 0.898168, 0.529053, 0.824919, 0.62231, 0.884735, 0.62231, 0.824919, 0.826349, 0.539447, 0.979179, 0.581565, 0.999999, 0.471377, -2.98023e-08, 0.471482, 0.112001, 0.593951, 0.173552, 0.539516, 0.0950558, 0.824919, -5.96046e-08, 0.858488, 0.0950558, 0.8929, 0.640196, 0.824919, 0.766075, 0.771532, 0.640196, 0.716806, 0.766075, 0.824919, 0.796298, 0.79135, 0.766075, 0.771532, 0.826399, 0.716806, 1.0, 0.648825, 0.826399, 0.608693, 0.437158, 0.8929, 0.0950558, 0.824919, 0.0950558, 0.8929, 0.826349, 0.539447, 0.211251, 0.509173, 0.788681, 0.509113, 0.173552, 0.539516, 0.211251, 0.0320073, 0.211251, 0.509173, -2.98023e-08, 0.471482, 0.173552, 6.84261e-05, 0.173552, 0.539516, 0.0, 0.716806, 0.640196, 0.824919, 0.0, 0.824919, 0.173601, 0.608693, 0.826399, 0.716806, 0.173601, 0.716806, 0.173552, 6.84261e-05, 0.788681, 0.0319468, 0.211251, 0.0320073, 0.826349, 0.0, 0.788681, 0.509113, 0.788681, 0.0319468, 0.0950558, 0.8929, 0.437158, 0.96088, 0.0950558, 0.96088, -5.96046e-08, 0.716806, 0.173601, 0.608693, 0.173601, 0.716806, 0.999999, 0.0731922, 0.826349, 0.539447, 0.826349, 0.0, -5.96046e-08, 0.96088, 0.0950558, 0.8929, 0.0950558, 0.96088, 0.0176607, 0.98044, 0.566282, 1.0, -5.96046e-08, 1.0, 0.767705, 0.493019, 0.788681, 0.0319468, 0.788681, 0.509113, 0.232274, 0.050615, 0.211251, 0.509173, 0.211251, 0.0320073, 0.55643, 0.98044, 0.0, 0.96088, 0.577429, 0.96088, 0.437158, 0.898168, 0.529053, 0.824919, 0.529053, 0.898168, 0.62231, 0.884735, 0.529053, 0.824919, 0.62231, 0.824919, 0.979179, 0.581565, 0.826349, 0.539447, 0.999999, 0.471377, 0.112001, 0.593951, -2.98023e-08, 0.471482, 0.173552, 0.539516, -5.96046e-08, 0.858488, 0.0950558, 0.824919, 0.0950558, 0.8929, 0.766075, 0.771532, 0.640196, 0.824919, 0.640196, 0.716806, 0.796298, 0.79135, 0.766075, 0.824919, 0.766075, 0.771532, 1.0, 0.648825, 0.826399, 0.716806, 0.826399, 0.608693, 0.0950558, 0.824919, 0.437158, 0.8929, 0.0950558, 0.8929, 0.211251, 0.509173, 0.173552, 0.539516, 0.826349, 0.539447, 0.211251, 0.0320073, 0.173552, 6.84261e-05, 0.173552, 0.539516, 0.173552, 6.84261e-05, 0.0, 0.0732969, -2.98023e-08, 0.471482, 0.640196, 0.716806, 0.826399, 0.608693, 0.788681, 0.0319468, 0.826349, 0.0, 0.173552, 6.84261e-05, 0.788681, 0.509113, 0.826349, 0.539447, 0.826349, 0.0, 0.437158, 0.8929, 0.173601, 0.608693, 0.0, 0.648825, -5.96046e-08, 0.716806, 0.826349, 0.539447, 0.999999, 0.471377, 0.999999, 0.0731922, 0.0950558, 0.8929, 0.0, 0.927311, -5.96046e-08, 0.96088, 0.566282, 1.0, 0.542755, 0.98044, 0.0176607, 0.98044, 0.788681, 0.0319468, 0.767705, 0.0505589, 0.767705, 0.493019, 0.211251, 0.509173, 0.232274, 0.493075, 0.232274, 0.050615, 0.0, 0.96088, 0.0209991, 0.98044, 0.55643, 0.98044, 0.529053, 0.824919, 0.437158, 0.864598, 0.437158, 0.898168, 0.559126, 0.884735, 0.826349, 0.539447, 0.943443, 0.608693, 0.979179, 0.581565, -2.98023e-08, 0.471482, 0.0209036, 0.581665, 0.112001, 0.593951, 0.0950558, 0.824919, 0.0, 0.824919, -5.96046e-08, 0.858488, 0.640196, 0.824919, 0.766075, 0.824919, 0.766075, 0.771532, 0.766075, 0.824919, 0.796298, 0.824919, 0.796298, 0.79135, 0.826399, 0.716806, 1.0, 0.716806, 1.0, 0.648825, 0.437158, 0.824919, 0.826349, 0.539447, 0.173552, 0.539516, 0.211251, 0.509173, 0.173552, 0.539516, 0.173552, 6.84261e-05, 0.211251, 0.0320073, -2.98023e-08, 0.471482, 0.0, 0.0732969, 0.173552, 6.84261e-05, 0.640196, 0.716806, 0.826399, 0.608693, 0.173552, 6.84261e-05, 0.826349, 0.0, 0.788681, 0.0319468, 0.826349, 0.0, 0.826349, 0.539447, 0.788681, 0.509113, 0.437158, 0.8929, -5.96046e-08, 0.716806, 0.0, 0.648825, 0.173601, 0.608693, 0.999999, 0.0731922, 0.999999, 0.471377, 0.826349, 0.539447, -5.96046e-08, 0.96088, 0.0, 0.927311, 0.0950558, 0.8929, 0.0176607, 0.98044, 0.542755, 0.98044, 0.566282, 1.0, 0.767705, 0.493019, 0.767705, 0.0505589, 0.788681, 0.0319468, 0.232274, 0.050615, 0.232274, 0.493075, 0.211251, 0.509173, 0.55643, 0.98044, 0.0209991, 0.98044, 0.0, 0.96088, 0.437158, 0.898168, 0.437158, 0.864598, 0.529053, 0.824919, 0.559126, 0.884735, 0.979179, 0.581565, 0.943443, 0.608693, 0.826349, 0.539447, 0.112001, 0.593951, 0.0209036, 0.581665, -2.98023e-08, 0.471482, -5.96046e-08, 0.858488, 0.0, 0.824919, 0.0950558, 0.824919, 0.766075, 0.771532, 0.766075, 0.824919, 0.640196, 0.824919, 0.796298, 0.79135, 0.796298, 0.824919, 0.766075, 0.824919, 1.0, 0.648825, 1.0, 0.716806, 0.826399, 0.716806, 0.437158, 0.824919),
		null, ; No UV2,
		null, ; No Bones,
		null, ; No Weights,
		IntArray(0, 2, 1, 3, 5, 4, 6, 8, 7, 9, 11, 10, 12, 14, 13, 15, 17, 16, 18, 20, 19, 21, 23, 22, 24, 26, 25, 27, 29, 28, 30, 32, 31, 33, 35, 34, 36, 38, 37, 39, 41, 40, 42, 44, 43, 45, 47, 46, 48, 50, 49, 51, 53, 52, 54, 56, 55, 57, 59, 58, 60, 62, 61, 63, 65, 64, 66, 68, 67, 69, 71, 70, 72, 74, 73, 75, 77, 76, 78, 80, 79, 81, 83, 82, 84, 86, 85, 87, 89, 88, 90, 92, 91, 93, 95, 94, 96, 98, 97, 99, 101, 100, 102, 104, 103, 105, 107, 106, 108, 110, 109, 111, 113, 112, 114, 116, 115, 117, 119, 118, 120, 122, 121, 123, 125, 124, 126, 128, 127, 129, 131, 130, 132, 134, 133, 135, 137, 136, 138, 140, 139, 141, 143, 142, 144, 146, 145, 147, 149, 148, 150, 152, 151, 9, 10, 153, 12, 13, 154, 155, 157, 156, 158, 160, 159, 21, 22, 161, 162, 164, 163, 165, 167, 166, 168, 170, 169, 171, 173, 172, 174, 176, 175, 177, 179, 178, 180, 182, 181, 183, 185, 184, 48, 49, 186, 187, 189, 188, 190, 192, 191, 193, 195, 194, 196, 198, 197, 199, 201, 200, 202, 204, 203, 69, 70, 205, 206, 208, 207, 209, 211, 210, 212, 214, 213, 81, 82, 215, 84, 85, 216, 217, 219, 218, 220, 222, 221, 93, 94, 223, 224, 226, 225, 227, 229, 228, 230, 232, 231, 233, 235, 234, 236, 238, 237, 239, 241, 240, 242, 244, 243, 245, 247, 246, 120, 121, 248, 249, 251, 250, 252, 254, 253, 255, 257, 256, 258, 260, 259, 261, 263, 262, 264, 266, 265, 141, 142, 267)
	],
	"morph_arrays":[]
}
surfaces/1 = {
	"material":ExtResource(1),
	"primitive":4,
	"arrays":[
		Vector3Array(1.87591, 1.53594, 0.47728, -1.87442, -1.46401, 0.47728, 1.87591, -1.46401, 0.47728, -1.87442, -1.46401, -0.47728, 1.87591, 1.53594, -0.47728, 1.87591, -1.46401, -0.47728, -1.87442, 1.53594, 0.47728, -1.87442, 1.53594, -0.47728),
		Vector3Array(0.0, 0.0, 1.0, 0.0, 0.0, 1.0, 0.0, 0.0, 1.0, 0.0, 0.0, -1.0, 0.0, 0.0, -1.0, 0.0, 0.0, -1.0, 0.0, 0.0, 1.0, 0.0, 0.0, -1.0),
		FloatArray(1.0, -0.000100602, 0.0, 1.0, 1.0, -0.000100588, 0.0, 1.0, 1.0, -0.000100644, 0.0, 1.0, 1.0, -0.000100596, 0.0, -1.0, 1.0, -0.000100601, 0.0, -1.0, 1.0, -0.000100618, 0.0, -1.0, 1.0, -0.000100546, 0.0, 1.0, 1.0, -0.00010058, 0.0, -1.0),
		null, ; no Vertex Colors,
		Vector2Array(0.998716, 0.00635195, -0.00373703, 1.00134, 1.00122, 1.00122, -0.00373703, 1.00134, 0.998716, 0.00635195, 1.00122, 1.00122, -0.00623689, 0.006477, -0.00623689, 0.006477),
		null, ; No UV2,
		null, ; No Bones,
		null, ; No Weights,
		IntArray(0, 2, 1, 3, 5, 4, 0, 1, 6, 3, 4, 7)
	],
	"morph_arrays":[]
}

[node type="Spatial" name="Scene"]

[node name="CubePhysics" type="KinematicBody" parent="."]

transform = Transform(1.0, 0.0, 0.0, 0.0, 1.0, 0.0, 0.0, 0.0, 1.0, 0.0, 0.0, 0.0)
collision_layer = 1
collision_mask = 1

[node name="CubeCollision" type="CollisionShape" parent="CubePhysics"]

transform = Transform(1.0, 0.0, 0.0, 0.0, -4.37114e-08, 1.0, 0.0, -1.0, -4.37114e-08, 0.0, 0.0, 0.0)
shape = SubResource(1)

[node name="Cube" type="MeshInstance" parent="CubePhysics/CubeCollision"]

mesh = SubResource(4)
visible = true
transform = Transform(1.0, 0.0, 0.0, 0.0, -4.37114e-08, -1.0, 0.0, 1.0, -4.37114e-08, 0.0, 0.0, 0.0)
