[gd_scene load_steps=7 format=2]

[ext_resource path="res://fonts/Orbitron Bold.otf" type="DynamicFontData" id=1]
[ext_resource path="res://InputIcon.gd" type="Script" id=2]
[ext_resource path="res://gui/mouse_right_click.svg" type="Texture" id=3]
[ext_resource path="res://gui/mouse_left_click.svg" type="Texture" id=4]

[sub_resource type="StyleBoxFlat" id=1]
bg_color = Color( 0.6, 0.6, 0.6, 0.419608 )
border_width_left = 4
border_width_top = 4
border_width_right = 4
border_width_bottom = 4
corner_radius_top_left = 4
corner_radius_top_right = 4
corner_radius_bottom_right = 4
corner_radius_bottom_left = 4
expand_margin_left = 4.0
expand_margin_right = 4.0
expand_margin_top = 4.0
expand_margin_bottom = 4.0
shadow_size = 4

[sub_resource type="DynamicFont" id=2]
size = 24
use_filter = true
extra_spacing_top = 1
extra_spacing_bottom = 5
font_data = ExtResource( 1 )

[node name="InputIcon" type="CenterContainer"]
margin_right = 40.0
margin_bottom = 40.0
script = ExtResource( 2 )
__meta__ = {
"_edit_use_anchors_": false
}
action = "ui_accept"

[node name="KeyLabel" type="Label" parent="."]
margin_top = 1.0
margin_right = 64.0
margin_bottom = 39.0
size_flags_horizontal = 4
custom_styles/normal = SubResource( 1 )
custom_fonts/font = SubResource( 2 )
text = "Left"
align = 1
valign = 1
__meta__ = {
"_edit_use_anchors_": false
}

[node name="LeftClick" type="TextureRect" parent="."]
visible = false
margin_left = 6.0
margin_top = -6.0
margin_right = 57.0
margin_bottom = 45.0
texture = ExtResource( 4 )
__meta__ = {
"_edit_use_anchors_": false
}

[node name="RightClick" type="TextureRect" parent="."]
visible = false
margin_left = 6.0
margin_top = -6.0
margin_right = 57.0
margin_bottom = 45.0
texture = ExtResource( 3 )
__meta__ = {
"_edit_use_anchors_": false
}
